…
### 1. Calculate the total number of steps taken per day


```r
library(dplyr)
data_steps_taken_perday <- data %>%
        filter(!is.na(steps)) %>%
        group_by(date) %>%
        summarize(PerDaySteps = sum(steps), steps = steps)

data_steps_taken_perday        
```

```
## # A tibble: 15,264 x 3
## # Groups:   date [53]
##    date       PerDaySteps steps
##    <fct>            <int> <int>
##  1 2012-10-02         126     0
##  2 2012-10-02         126     0
##  3 2012-10-02         126     0
##  4 2012-10-02         126     0
##  5 2012-10-02         126     0
##  6 2012-10-02         126     0
##  7 2012-10-02         126     0
##  8 2012-10-02         126     0
##  9 2012-10-02         126     0
## 10 2012-10-02         126     0
## # … with 15,254 more rows
```
…
### 3. Calculate and report the mean and median of the total number of steps taken per day


```r
data %>%
        filter(!is.na(steps)) %>%
        group_by(date) %>%
        summarize(mean = mean(steps, na.rm = TRUE), 
                  median = median(steps, na.rm = TRUE), 
                  total_steps = sum(steps, na.rm = TRUE))
```

```
## # A tibble: 53 x 4
##    date         mean median total_steps
##    <fct>       <dbl>  <dbl>       <int>
##  1 2012-10-02  0.438      0         126
##  2 2012-10-03 39.4        0       11352
##  3 2012-10-04 42.1        0       12116
##  4 2012-10-05 46.2        0       13294
##  5 2012-10-06 53.5        0       15420
##  6 2012-10-07 38.2        0       11015
##  7 2012-10-09 44.5        0       12811
##  8 2012-10-10 34.4        0        9900
##  9 2012-10-11 35.8        0       10304
## 10 2012-10-12 60.4        0       17382
## # … with 43 more rows
```
…
Observation: After impute the missing values we can see from the histogram that total count of steps per day has increased significantly.

Report mean, median & total number of steps taken per day


```r
data_after_impute %>%
        group_by(date) %>%
        summarize(mean = mean(steps, na.rm = TRUE), 
                  median = median(steps, na.rm = TRUE), 
                  total_steps = sum(steps))
```

```
## # A tibble: 61 x 4
##    date         mean median total_steps
##    <fct>       <dbl>  <dbl>       <dbl>
##  1 2012-10-01 37.4     37.4      10766.
##  2 2012-10-02  0.438    0          126 
##  3 2012-10-03 39.4      0        11352 
##  4 2012-10-04 42.1      0        12116 
##  5 2012-10-05 46.2      0        13294 
##  6 2012-10-06 53.5      0        15420 
##  7 2012-10-07 38.2      0        11015 
##  8 2012-10-08 37.4     37.4      10766.
##  9 2012-10-09 44.5      0        12811 
## 10 2012-10-10 34.4      0         9900 
## # … with 51 more rows
```
…
